…
```   
> require('ggplot2')
> data(package='ggplot2')
> help("diamonds")
```

# diamonds
```
> diamonds

# A tibble: 53,940 x 10
   carat cut   color clarity depth table price     x
   <dbl> <ord> <ord> <ord>   <dbl> <dbl> <int> <dbl>
 1 0.23  Ideal E     SI2      61.5    55   326  3.95
 2 0.21  Prem~ E     SI1      59.8    61   326  3.89
 3 0.23  Good  E     VS1      56.9    65   327  4.05
 4 0.290 Prem~ I     VS2      62.4    58   334  4.2 
 5 0.31  Good  J     SI2      63.3    58   335  4.34
 6 0.24  Very~ J     VVS2     62.8    57   336  3.94
 7 0.24  Very~ I     VVS1     62.3    57   336  3.95
 8 0.26  Very~ H     SI1      61.9    55   337  4.07
 9 0.22  Fair  E     VS2      65.1    61   337  3.87
10 0.23  Very~ H     VS1      59.4    61   338  4   
# ... with 53,930 more rows, and 2 more variables:
#   y <dbl>, z <dbl>
```
…
       z         
 Min.   : 0.000  
 1st Qu.: 2.910  
 Median : 3.530  
 Mean   : 3.539  
 3rd Qu.: 4.040  
 Max.   :31.800  
```

#subset
```
> subset(diamonds,cut %in% 'Fair')
# A tibble: 1,610 x 10
   carat cut   color clarity depth table price     x
   <dbl> <ord> <ord> <ord>   <dbl> <dbl> <int> <dbl>
 1  0.22 Fair  E     VS2      65.1    61   337  3.87
 2  0.86 Fair  E     SI2      55.1    69  2757  6.45
 3  0.96 Fair  F     SI2      66.3    62  2759  6.27
 4  0.7  Fair  F     VS2      64.5    57  2762  5.57
 5  0.7  Fair  F     VS2      65.3    55  2762  5.63
 6  0.91 Fair  H     SI2      64.4    57  2763  6.11
 7  0.91 Fair  H     SI2      65.7    60  2763  6.03
 8  0.98 Fair  H     SI2      67.9    60  2777  6.05
 9  0.84 Fair  G     SI1      55.1    67  2782  6.39
10  1.01 Fair  E     I1       64.5    58  2788  6.29
# ... with 1,600 more rows, and 2 more variables:
#   y <dbl>, z <dbl>
```
…
